000000
911829
325045
190984
871870
384884
833176
931280
574462
538242
522710
319968
201389
638444
473018
787453
805969
331651
577136
927439
948411
275242
362148
866268
287300
574822
847575
646069
952517
392296
354868
733529
304125
579914
824513
175996
864799
657690
107276
439262
195933
529986
659231
297323
168430
132249
984777
874400
363901
561913
801839
312312
737156
163988
178580
924457
638811
926155
570526
591329
318452
825395
324858
522578
405310
149372
598574
270110
707063
605851
609372
802997
135838
268604
100321
204269
300853
985098
978669
564755
547012
780509
777068
284168
844497
855648
208626
483309
781804
679152
974638
100256
504547
299497
522835
809858
348870
121409
979968
955933
627260
589340
758931
663098
757944
759252
767368
958798
744350
746037
523554
291363
526546
300622
475532
371044
156271
584158
754353
838075
263311
728992
838332
667858
928489
361167
477717
277359
382577
457685
233293
909838
947026
892224
572937
704970
651476
340305
663769
395827
986342
187324
587190
512889
387946
962722
783934
444217
546881
538288
282293
710192
267280
120625
378051
195769
381793
755768
373129
664371
213453
506422
574209
160479
398647
147147
765450
950123
387452
429220
345951
373795
516544
833142
786685
804490
795864
570619
248708
342746
108907
431001
952938
276188
451627
330989
371958
733421
986758
645087
397792
200211
151510
872001
260691
450157
919148
926142
400281
306601
355363
